Coronary Artery Bypass Graft (CABG) Complications - 2 Data
…
Code

raw_data = cabg %>% subset(category!="All") %>% select(-Yes)
raw_data %>%
  pivot_wider(
    id_cols = c(Year, complication, Strata, readmission),
    names_from = category,
    values_from = Count,
    values_fill = list(Count = 0)
  )

# A tibble: 960 × 9
   Year      complication  Strata readmission   Age `CABG type` Gender PayorType
   <chr>     <chr>         <chr>  <chr>       <int>       <int>  <int>     <int>
 1 2018-2019 Deep Sternal… 0 to … N               0           0      0         0
 2 2018-2019 Deep Sternal… 41-65  N              11           0      0         0
 3 2018-2019 Deep Sternal… 66 to… N              11           0      0         0
 4 2018-2019 Deep Sternal… CABG+… N               0           5      0         0
 5 2018-2019 Deep Sternal… Isola… N               0          16      0         0
 6 2018-2019 Deep Sternal… Other… N               0           1      0         0
 7 2018-2019 Deep Sternal… Female N               0           0      6         0
 8 2018-2019 Deep Sternal… Male   N               0           0     16         0
 9 2018-2019 Deep Sternal… Medi-… N               0           0      0         1
10 2018-2019 Deep Sternal… Medic… N               0           0      0         7
# ℹ 950 more rows
# ℹ 1 more variable: Race <int>
…
